{"failedCount":0,"prefixedPath":"classpath:features\/parameters.feature","packageQualifiedName":"features.parameters","loopIndex":-1,"relativePath":"features\/parameters.feature","scenarioResults":[{"sectionIndex":0,"stepResults":[{"result":{"nanos":354100,"millis":0.3541,"status":"passed"},"step":{"line":4,"prefix":"Given","index":0,"text":"url \"https:\/\/reqres.in\/api\""},"stepLog":"15:22:26.410 karate.env system property was: null \n"},{"result":{"nanos":500400,"millis":0.5004,"status":"passed"},"step":{"line":5,"prefix":"And","index":1,"text":"path \"\/users\""}},{"result":{"nanos":959000,"millis":0.959,"status":"passed"},"step":{"line":6,"prefix":"And","index":2,"text":"param page = 2"}},{"result":{"nanos":637540200,"millis":637.5402,"status":"passed"},"step":{"line":7,"prefix":"When","index":3,"text":"method Get"},"stepLog":"15:22:26.417 request:\n1 > GET https:\/\/reqres.in\/api\/users?page=2\n1 > Host: reqres.in\n1 > Connection: Keep-Alive\n1 > User-Agent: Apache-HttpClient\/4.5.13 (Java\/17)\n1 > Accept-Encoding: gzip,deflate\n\n\n15:22:27.050 response time in milliseconds: 633\n1 < 200\n1 < Date: Sun, 30 Oct 2022 07:22:27 GMT\n1 < Content-Type: application\/json; charset=utf-8\n1 < Transfer-Encoding: chunked\n1 < Connection: keep-alive\n1 < X-Powered-By: Express\n1 < Access-Control-Allow-Origin: *\n1 < Etag: W\/\"406-ut0vzoCuidvyMf8arZpMpJ6ZRDw\"\n1 < Via: 1.1 vegur\n1 < Cache-Control: max-age=14400\n1 < CF-Cache-Status: REVALIDATED\n1 < Report-To: {\"endpoints\":[{\"url\":\"https:\\\/\\\/a.nel.cloudflare.com\\\/report\\\/v3?s=wAfPMeVqKSp70FAvI0n4PkFoKufGD0VV%2BwZSlf8TKdDgFy5fyKsarPQpAhluZ8oH1xaQGwC40m%2FutKPVGNbcWEv%2Bmt9y77ox0qnvOKBUOs3uANTdngYRwM%2BiAA%3D%3D\"}],\"group\":\"cf-nel\",\"max_age\":604800}\n1 < NEL: {\"success_fraction\":0,\"report_to\":\"cf-nel\",\"max_age\":604800}\n1 < Vary: Accept-Encoding\n1 < Server: cloudflare\n1 < CF-RAY: 7622665bbda7f1fa-KHH\n{\"page\":2,\"per_page\":6,\"total\":12,\"total_pages\":2,\"data\":[{\"id\":7,\"email\":\"michael.lawson@reqres.in\",\"first_name\":\"Michael\",\"last_name\":\"Lawson\",\"avatar\":\"https:\/\/reqres.in\/img\/faces\/7-image.jpg\"},{\"id\":8,\"email\":\"lindsay.ferguson@reqres.in\",\"first_name\":\"Lindsay\",\"last_name\":\"Ferguson\",\"avatar\":\"https:\/\/reqres.in\/img\/faces\/8-image.jpg\"},{\"id\":9,\"email\":\"tobias.funke@reqres.in\",\"first_name\":\"Tobias\",\"last_name\":\"Funke\",\"avatar\":\"https:\/\/reqres.in\/img\/faces\/9-image.jpg\"},{\"id\":10,\"email\":\"byron.fields@reqres.in\",\"first_name\":\"Byron\",\"last_name\":\"Fields\",\"avatar\":\"https:\/\/reqres.in\/img\/faces\/10-image.jpg\"},{\"id\":11,\"email\":\"george.edwards@reqres.in\",\"first_name\":\"George\",\"last_name\":\"Edwards\",\"avatar\":\"https:\/\/reqres.in\/img\/faces\/11-image.jpg\"},{\"id\":12,\"email\":\"rachel.howell@reqres.in\",\"first_name\":\"Rachel\",\"last_name\":\"Howell\",\"avatar\":\"https:\/\/reqres.in\/img\/faces\/12-image.jpg\"}],\"support\":{\"url\":\"https:\/\/reqres.in\/#support-heading\",\"text\":\"To keep ReqRes free, contributions towards server costs are appreciated!\"}}\n\n"},{"result":{"nanos":12100,"millis":0.0121,"status":"passed"},"step":{"line":8,"prefix":"Then","index":4,"text":"status 200"}},{"result":{"nanos":2445500,"millis":2.4455,"status":"passed"},"step":{"line":9,"prefix":"Then","index":5,"text":"match response[\"data\"][0].first_name == \"Michael\""}},{"result":{"nanos":2817900,"millis":2.8179,"status":"passed"},"step":{"line":10,"prefix":"Then","index":6,"text":"match response[\"data\"] == \"#[6]\""}}],"executorName":"pool-1-thread-4","line":3,"name":"Use parameters to test Get API","description":"","durationMillis":644.6292,"startTime":1667114546409,"failed":false,"refId":"[1:3]","endTime":1667114547057,"exampleIndex":-1}],"callDepth":0,"name":"A simply GET API tests","description":"","resultDate":"2022-10-30 03:22:28 下午","durationMillis":644.6292,"passedCount":1}