{"failedCount":0,"prefixedPath":"classpath:features\/parameters.feature","packageQualifiedName":"features.parameters","loopIndex":-1,"relativePath":"features\/parameters.feature","scenarioResults":[{"sectionIndex":0,"stepResults":[{"result":{"nanos":775600,"millis":0.7756,"status":"passed"},"step":{"line":4,"prefix":"Given","index":0,"text":"url \"https:\/\/reqres.in\/api\""},"stepLog":"15:25:55.099 karate.env system property was: null \n"},{"result":{"nanos":764100,"millis":0.7641,"status":"passed"},"step":{"line":5,"prefix":"And","index":1,"text":"path \"\/users\""}},{"result":{"nanos":1252700,"millis":1.2527,"status":"passed"},"step":{"line":6,"prefix":"And","index":2,"text":"param page = 2"}},{"result":{"nanos":126590700,"millis":126.5907,"status":"passed"},"step":{"line":7,"prefix":"When","index":3,"text":"method Get"},"stepLog":"15:25:55.108 request:\n1 > GET https:\/\/reqres.in\/api\/users?page=2\n1 > Host: reqres.in\n1 > Connection: Keep-Alive\n1 > User-Agent: Apache-HttpClient\/4.5.13 (Java\/17)\n1 > Accept-Encoding: gzip,deflate\n\n\n15:25:55.229 response time in milliseconds: 120\n1 < 200\n1 < Date: Sun, 30 Oct 2022 07:25:55 GMT\n1 < Content-Type: application\/json; charset=utf-8\n1 < Transfer-Encoding: chunked\n1 < Connection: keep-alive\n1 < X-Powered-By: Express\n1 < Access-Control-Allow-Origin: *\n1 < Etag: W\/\"406-ut0vzoCuidvyMf8arZpMpJ6ZRDw\"\n1 < Via: 1.1 vegur\n1 < Cache-Control: max-age=14400\n1 < CF-Cache-Status: HIT\n1 < Age: 208\n1 < Report-To: {\"endpoints\":[{\"url\":\"https:\\\/\\\/a.nel.cloudflare.com\\\/report\\\/v3?s=NmekZwhlkND96OhQATi6pmMT%2FHYyU3fkYO6bonlaCauhl7XKaQycU1PcXlXMEXldhZoktPRa5D00lT%2Baj6tdPkciszr1ZwgBz%2FNCmZRKRVxqx9XoZtAOBYkQXQ%3D%3D\"}],\"group\":\"cf-nel\",\"max_age\":604800}\n1 < NEL: {\"success_fraction\":0,\"report_to\":\"cf-nel\",\"max_age\":604800}\n1 < Vary: Accept-Encoding\n1 < Server: cloudflare\n1 < CF-RAY: 76226b746ff2f201-KHH\n{\"page\":2,\"per_page\":6,\"total\":12,\"total_pages\":2,\"data\":[{\"id\":7,\"email\":\"michael.lawson@reqres.in\",\"first_name\":\"Michael\",\"last_name\":\"Lawson\",\"avatar\":\"https:\/\/reqres.in\/img\/faces\/7-image.jpg\"},{\"id\":8,\"email\":\"lindsay.ferguson@reqres.in\",\"first_name\":\"Lindsay\",\"last_name\":\"Ferguson\",\"avatar\":\"https:\/\/reqres.in\/img\/faces\/8-image.jpg\"},{\"id\":9,\"email\":\"tobias.funke@reqres.in\",\"first_name\":\"Tobias\",\"last_name\":\"Funke\",\"avatar\":\"https:\/\/reqres.in\/img\/faces\/9-image.jpg\"},{\"id\":10,\"email\":\"byron.fields@reqres.in\",\"first_name\":\"Byron\",\"last_name\":\"Fields\",\"avatar\":\"https:\/\/reqres.in\/img\/faces\/10-image.jpg\"},{\"id\":11,\"email\":\"george.edwards@reqres.in\",\"first_name\":\"George\",\"last_name\":\"Edwards\",\"avatar\":\"https:\/\/reqres.in\/img\/faces\/11-image.jpg\"},{\"id\":12,\"email\":\"rachel.howell@reqres.in\",\"first_name\":\"Rachel\",\"last_name\":\"Howell\",\"avatar\":\"https:\/\/reqres.in\/img\/faces\/12-image.jpg\"}],\"support\":{\"url\":\"https:\/\/reqres.in\/#support-heading\",\"text\":\"To keep ReqRes free, contributions towards server costs are appreciated!\"}}\n\n"},{"result":{"nanos":16200,"millis":0.0162,"status":"passed"},"step":{"line":8,"prefix":"Then","index":4,"text":"status 200"}},{"result":{"nanos":35154200,"millis":35.1542,"status":"passed"},"step":{"line":9,"prefix":"Then","index":5,"text":"match response[\"data\"][0].first_name == \"Michael\""}},{"result":{"nanos":4648600,"millis":4.6486,"status":"passed"},"step":{"line":10,"prefix":"Then","index":6,"text":"match response[\"data\"] == \"#[6]\""}}],"executorName":"pool-1-thread-5","line":3,"name":"Use parameters to test Get API","description":"","durationMillis":169.2021,"startTime":1667114755098,"failed":false,"refId":"[1:3]","endTime":1667114755271,"exampleIndex":-1}],"callDepth":0,"name":"A simply GET API tests","description":"","resultDate":"2022-10-30 03:25:56 下午","durationMillis":169.2021,"passedCount":1}