{"failedCount":0,"prefixedPath":"classpath:features\/parameters.feature","packageQualifiedName":"features.parameters","loopIndex":-1,"relativePath":"features\/parameters.feature","scenarioResults":[{"sectionIndex":0,"stepResults":[{"result":{"nanos":222000,"millis":0.222,"status":"passed"},"step":{"line":4,"prefix":"Given","index":0,"text":"url \"https:\/\/reqres.in\/api\""},"stepLog":"12:39:47.106 karate.env system property was: null \n"},{"result":{"nanos":296000,"millis":0.296,"status":"passed"},"step":{"line":5,"prefix":"And","index":1,"text":"path \"\/users\""}},{"result":{"nanos":759200,"millis":0.7592,"status":"passed"},"step":{"line":6,"prefix":"And","index":2,"text":"param page = 2"}},{"result":{"nanos":157167800,"millis":157.1678,"status":"passed"},"step":{"line":7,"prefix":"When","index":3,"text":"method Get"},"stepLog":"12:39:47.110 request:\n1 > GET https:\/\/reqres.in\/api\/users?page=2\n1 > Host: reqres.in\n1 > Connection: Keep-Alive\n1 > User-Agent: Apache-HttpClient\/4.5.13 (Java\/17)\n1 > Accept-Encoding: gzip,deflate\n\n\n12:39:47.264 response time in milliseconds: 153\n1 < 200\n1 < Date: Sun, 14 Aug 2022 04:39:44 GMT\n1 < Content-Type: application\/json; charset=utf-8\n1 < Transfer-Encoding: chunked\n1 < Connection: keep-alive\n1 < X-Powered-By: Express\n1 < Access-Control-Allow-Origin: *\n1 < Etag: W\/\"406-ut0vzoCuidvyMf8arZpMpJ6ZRDw\"\n1 < Via: 1.1 vegur\n1 < Cache-Control: max-age=14400\n1 < CF-Cache-Status: HIT\n1 < Age: 4408\n1 < Expect-CT: max-age=604800, report-uri=\"https:\/\/report-uri.cloudflare.com\/cdn-cgi\/beacon\/expect-ct\"\n1 < Report-To: {\"endpoints\":[{\"url\":\"https:\\\/\\\/a.nel.cloudflare.com\\\/report\\\/v3?s=Y7l6hS2P2BuyS1Fm6inkzylGD8bwjcYROAsM7b8iYPj8B9A40xPbEKNRz0DYf5X%2FmhSFJBSrrKkxCRUjCsOvYE4IaTT32nDdom9bE2Q4tY5pYNnUXpoeOMqkuA%3D%3D\"}],\"group\":\"cf-nel\",\"max_age\":604800}\n1 < NEL: {\"success_fraction\":0,\"report_to\":\"cf-nel\",\"max_age\":604800}\n1 < Vary: Accept-Encoding\n1 < Server: cloudflare\n1 < CF-RAY: 73a70227f972af72-NRT\n{\"page\":2,\"per_page\":6,\"total\":12,\"total_pages\":2,\"data\":[{\"id\":7,\"email\":\"michael.lawson@reqres.in\",\"first_name\":\"Michael\",\"last_name\":\"Lawson\",\"avatar\":\"https:\/\/reqres.in\/img\/faces\/7-image.jpg\"},{\"id\":8,\"email\":\"lindsay.ferguson@reqres.in\",\"first_name\":\"Lindsay\",\"last_name\":\"Ferguson\",\"avatar\":\"https:\/\/reqres.in\/img\/faces\/8-image.jpg\"},{\"id\":9,\"email\":\"tobias.funke@reqres.in\",\"first_name\":\"Tobias\",\"last_name\":\"Funke\",\"avatar\":\"https:\/\/reqres.in\/img\/faces\/9-image.jpg\"},{\"id\":10,\"email\":\"byron.fields@reqres.in\",\"first_name\":\"Byron\",\"last_name\":\"Fields\",\"avatar\":\"https:\/\/reqres.in\/img\/faces\/10-image.jpg\"},{\"id\":11,\"email\":\"george.edwards@reqres.in\",\"first_name\":\"George\",\"last_name\":\"Edwards\",\"avatar\":\"https:\/\/reqres.in\/img\/faces\/11-image.jpg\"},{\"id\":12,\"email\":\"rachel.howell@reqres.in\",\"first_name\":\"Rachel\",\"last_name\":\"Howell\",\"avatar\":\"https:\/\/reqres.in\/img\/faces\/12-image.jpg\"}],\"support\":{\"url\":\"https:\/\/reqres.in\/#support-heading\",\"text\":\"To keep ReqRes free, contributions towards server costs are appreciated!\"}}\n\n"},{"result":{"nanos":19900,"millis":0.0199,"status":"passed"},"step":{"line":8,"prefix":"Then","index":4,"text":"status 200"}},{"result":{"nanos":2374800,"millis":2.3748,"status":"passed"},"step":{"line":9,"prefix":"Then","index":5,"text":"match response[\"data\"][0].first_name == \"Michael\""}},{"result":{"nanos":3703000,"millis":3.703,"status":"passed"},"step":{"line":10,"prefix":"Then","index":6,"text":"match response[\"data\"] == \"#[6]\""}}],"executorName":"pool-1-thread-2","line":3,"name":"Use parameters to test Get API","description":"","durationMillis":164.5427,"startTime":1660451987104,"failed":false,"refId":"[1:3]","endTime":1660451987272,"exampleIndex":-1}],"callDepth":0,"name":"A simply GET API tests","description":"","resultDate":"2022-08-14 12:39:48 下午","durationMillis":164.5427,"passedCount":1}